Reproducible science: Module 3
…
# Import data

.left[

```r
citations_raw
```

```
## # A tibble: 1,599 x 12
##    `Journal identity` `5-year journal im~ `Year published` Volume Issue Authors 
##    <chr>                            <dbl>            <dbl>  <dbl> <chr> <chr>   
##  1 Ecology Letters                   16.7             2014     17 12    Morin e~
##  2 Ecology Letters                   16.7             2014     17 12    Jucker ~
##  3 Ecology Letters                   16.7             2014     17 12    Calcagn~
##  4 Ecology Letters                   16.7             2014     17 11    Segre e~
##  5 Ecology Letters                   16.7             2014     17 11    Kaufman~
##  6 Ecology Letters                   16.7             2014     17 10    Nasto e~
##  7 Ecology Letters                   16.7             2014     17 10    Tschirr~
##  8 Ecology Letters                   16.7             2014     17 9     Barnech~
##  9 Ecology Letters                   16.7             2014     17 9     Pinto-S~
## 10 Ecology Letters                   16.7             2014     17 9     Clough ~
## # ... with 1,589 more rows, and 6 more variables: Collection date <chr>,
## #   Publication date <chr>, Number of tweets <dbl>, Number of users <dbl>,
## #   Twitter reach <dbl>, Number of Web of Science citations <dbl>
```
…
---
class: center

# Tidy: Clean up column names

.left[
To clean columns, use function *clean_names()* from the package janitor from it will fill space in column names by "_".

```r
janitor::clean_names(citations_raw)
```

```
## # A tibble: 1,599 x 12
##    journal_identity x5_year_journal_impa~ year_published volume issue authors   
##    <chr>                            <dbl>          <dbl>  <dbl> <chr> <chr>     
##  1 Ecology Letters                   16.7           2014     17 12    Morin et ~
##  2 Ecology Letters                   16.7           2014     17 12    Jucker et~
##  3 Ecology Letters                   16.7           2014     17 12    Calcagno ~
##  4 Ecology Letters                   16.7           2014     17 11    Segre et ~
##  5 Ecology Letters                   16.7           2014     17 11    Kaufman e~
##  6 Ecology Letters                   16.7           2014     17 10    Nasto et ~
##  7 Ecology Letters                   16.7           2014     17 10    Tschirren~
##  8 Ecology Letters                   16.7           2014     17 9     Barnechi ~
##  9 Ecology Letters                   16.7           2014     17 9     Pinto-San~
## 10 Ecology Letters                   16.7           2014     17 9     Clough et~
## # ... with 1,589 more rows, and 6 more variables: collection_date <chr>,
## #   publication_date <chr>, number_of_tweets <dbl>, number_of_users <dbl>,
## #   twitter_reach <dbl>, number_of_web_of_science_citations <dbl>
```
…
---
class: center

# Tidy: Create and modify columns
.left[
The well known function to create and modify columns is  *mutate()*, This function takes first the tibble names, the new_name= what you want to do to old column.

```r
citations <- mutate(citations_temp, journal = as.factor(journal)) 
#Pay attention that I store in "citations"
citations
```

```
## # A tibble: 1,599 x 12
*##    journal  impactfactor pubyear Volume Issue Authors  colldate pubdate nbtweets
*##    <fct>           <dbl>   <dbl>  <dbl> <chr> <chr>    <chr>    <chr>      <dbl>
##  1 Ecology~         16.7    2014     17 12    Morin e~ 2/1/2016 9/16/2~       18
##  2 Ecology~         16.7    2014     17 12    Jucker ~ 2/1/2016 10/13/~       15
##  3 Ecology~         16.7    2014     17 12    Calcagn~ 2/1/2016 10/21/~        5
##  4 Ecology~         16.7    2014     17 11    Segre e~ 2/1/2016 8/28/2~        9
##  5 Ecology~         16.7    2014     17 11    Kaufman~ 2/1/2016 8/28/2~        3
##  6 Ecology~         16.7    2014     17 10    Nasto e~ 2/2/2016 7/28/2~       27
##  7 Ecology~         16.7    2014     17 10    Tschirr~ 2/2/2016 8/6/20~        6
##  8 Ecology~         16.7    2014     17 9     Barnech~ 2/2/2016 6/17/2~       19
##  9 Ecology~         16.7    2014     17 9     Pinto-S~ 2/2/2016 6/12/2~       26
## 10 Ecology~         16.7    2014     17 9     Clough ~ 2/2/2016 7/17/2~       44
## # ... with 1,589 more rows, and 3 more variables: Number of users <dbl>,
## #   Twitter reach <dbl>, woscitations <dbl>
```
…
---
class: center, middle, inverse
# Other functions in Tidyverse
---
class: center
# Select columns
.left[*select()* is the function one uses to select different variables i a tibble. You just need to remember that it  follows a pipe operator (%>%), and it takes the name of columns one desires to select.

```r
citations %>%
  select(journal, impactfactor, nbtweets)
```

```
## # A tibble: 1,599 x 3
##    journal         impactfactor nbtweets
##    <fct>                  <dbl>    <dbl>
##  1 Ecology Letters         16.7       18
##  2 Ecology Letters         16.7       15
##  3 Ecology Letters         16.7        5
##  4 Ecology Letters         16.7        9
##  5 Ecology Letters         16.7        3
##  6 Ecology Letters         16.7       27
##  7 Ecology Letters         16.7        6
##  8 Ecology Letters         16.7       19
##  9 Ecology Letters         16.7       26
## 10 Ecology Letters         16.7       44
## # ... with 1,589 more rows
```
…
.left[
The opposite of selecting, which is deselecting. One just need to be more logical in the writing. 
Would you like to guess?
]
--

.left[

```r
citations %>%
* select(-Volume, -Issue, -Authors)
```

```
## # A tibble: 1,599 x 9
##    journal     impactfactor pubyear colldate pubdate   nbtweets `Number of user~
##    <fct>              <dbl>   <dbl> <chr>    <chr>        <dbl>            <dbl>
##  1 Ecology Le~         16.7    2014 2/1/2016 9/16/2014       18               16
##  2 Ecology Le~         16.7    2014 2/1/2016 10/13/20~       15               12
##  3 Ecology Le~         16.7    2014 2/1/2016 10/21/20~        5                4
##  4 Ecology Le~         16.7    2014 2/1/2016 8/28/2014        9                8
##  5 Ecology Le~         16.7    2014 2/1/2016 8/28/2014        3                3
##  6 Ecology Le~         16.7    2014 2/2/2016 7/28/2014       27               23
##  7 Ecology Le~         16.7    2014 2/2/2016 8/6/2014         6                6
##  8 Ecology Le~         16.7    2014 2/2/2016 6/17/2014       19               18
##  9 Ecology Le~         16.7    2014 2/2/2016 6/12/2014       26               23
## 10 Ecology Le~         16.7    2014 2/2/2016 7/17/2014       44               42
## # ... with 1,589 more rows, and 2 more variables: Twitter reach <dbl>,
## #   woscitations <dbl>
```
…
```
## [1] "9/16/2014"  "10/13/2014" "10/21/2014" "8/28/2014"  "8/28/2014" 
## [6] "7/28/2014"
```

```r
citations %>%
  select(journal, impactfactor, nbtweets, pubdate)%>%
  separate(pubdate,c('month','day','year'),'/')
```

```
## # A tibble: 1,599 x 6
##    journal         impactfactor nbtweets month day   year 
##    <fct>                  <dbl>    <dbl> <chr> <chr> <chr>
##  1 Ecology Letters         16.7       18 9     16    2014 
##  2 Ecology Letters         16.7       15 10    13    2014 
##  3 Ecology Letters         16.7        5 10    21    2014 
##  4 Ecology Letters         16.7        9 8     28    2014 
##  5 Ecology Letters         16.7        3 8     28    2014 
##  6 Ecology Letters         16.7       27 7     28    2014 
##  7 Ecology Letters         16.7        6 8     6     2014 
##  8 Ecology Letters         16.7       19 6     17    2014 
##  9 Ecology Letters         16.7       26 6     12    2014 
## 10 Ecology Letters         16.7       44 7     17    2014 
## # ... with 1,589 more rows
```
…
# Transform column in date format
.left[Many of us work with ecological data that record date, and we find it hard to keep these on readable format in R. Within, tidyverse there is a package that specially deals with date formatting variables/columns.
The package is called [**lubridate**](https://lubridate.tidyverse.org/).

```r
library(lubridate)
citations %>%
  mutate(pubdate = mdy(pubdate),
         colldate = mdy(colldate))%>%
  select(journal,impactfactor, nbtweets, pubdate, colldate)
```

```
## # A tibble: 1,599 x 5
##    journal         impactfactor nbtweets pubdate    colldate  
##    <fct>                  <dbl>    <dbl> <date>     <date>    
##  1 Ecology Letters         16.7       18 2014-09-16 2016-02-01
##  2 Ecology Letters         16.7       15 2014-10-13 2016-02-01
##  3 Ecology Letters         16.7        5 2014-10-21 2016-02-01
##  4 Ecology Letters         16.7        9 2014-08-28 2016-02-01
##  5 Ecology Letters         16.7        3 2014-08-28 2016-02-01
##  6 Ecology Letters         16.7       27 2014-07-28 2016-02-02
##  7 Ecology Letters         16.7        6 2014-08-06 2016-02-02
##  8 Ecology Letters         16.7       19 2014-06-17 2016-02-02
##  9 Ecology Letters         16.7       26 2014-06-12 2016-02-02
## 10 Ecology Letters         16.7       44 2014-07-17 2016-02-02
## # ... with 1,589 more rows
```
…
```r
library(lubridate)
citations %>%
  mutate(pubdate = mdy(pubdate),
         pubyear2 = year(pubdate))%>%
  select(journal,impactfactor, pubdate, colldate, pubyear2)
```

```
## # A tibble: 1,599 x 5
##    journal         impactfactor pubdate    colldate pubyear2
##    <fct>                  <dbl> <date>     <chr>       <dbl>
##  1 Ecology Letters         16.7 2014-09-16 2/1/2016     2014
##  2 Ecology Letters         16.7 2014-10-13 2/1/2016     2014
##  3 Ecology Letters         16.7 2014-10-21 2/1/2016     2014
##  4 Ecology Letters         16.7 2014-08-28 2/1/2016     2014
##  5 Ecology Letters         16.7 2014-08-28 2/1/2016     2014
##  6 Ecology Letters         16.7 2014-07-28 2/2/2016     2014
##  7 Ecology Letters         16.7 2014-08-06 2/2/2016     2014
##  8 Ecology Letters         16.7 2014-06-17 2/2/2016     2014
##  9 Ecology Letters         16.7 2014-06-12 2/2/2016     2014
## 10 Ecology Letters         16.7 2014-07-17 2/2/2016     2014
## # ... with 1,589 more rows
```
…
# Select rows of papers with > 3 authors
.left[

```r
citations %>%
*#str_detect() detect characters in a given column
    filter(str_detect(Authors,'et al')) 
```

```
## # A tibble: 1,280 x 12
##    journal  impactfactor pubyear Volume Issue Authors  colldate pubdate nbtweets
##    <fct>           <dbl>   <dbl>  <dbl> <chr> <chr>    <chr>    <chr>      <dbl>
##  1 Ecology~         16.7    2014     17 12    Morin e~ 2/1/2016 9/16/2~       18
##  2 Ecology~         16.7    2014     17 12    Jucker ~ 2/1/2016 10/13/~       15
##  3 Ecology~         16.7    2014     17 12    Calcagn~ 2/1/2016 10/21/~        5
##  4 Ecology~         16.7    2014     17 11    Segre e~ 2/1/2016 8/28/2~        9
##  5 Ecology~         16.7    2014     17 11    Kaufman~ 2/1/2016 8/28/2~        3
##  6 Ecology~         16.7    2014     17 10    Nasto e~ 2/2/2016 7/28/2~       27
##  7 Ecology~         16.7    2014     17 10    Tschirr~ 2/2/2016 8/6/20~        6
##  8 Ecology~         16.7    2014     17 9     Barnech~ 2/2/2016 6/17/2~       19
##  9 Ecology~         16.7    2014     17 9     Pinto-S~ 2/2/2016 6/12/2~       26
## 10 Ecology~         16.7    2014     17 9     Clough ~ 2/2/2016 7/17/2~       44
## # ... with 1,270 more rows, and 3 more variables: Number of users <dbl>,
## #   Twitter reach <dbl>, woscitations <dbl>
```
]
---
class: center
# Select columns with rows of papers with > 3 authors
.left[

```r
citations %>%
  filter(str_detect(Authors,'et al')) %>%
  select(Authors)
```

```
## # A tibble: 1,280 x 1
##    Authors            
##    <chr>              
##  1 Morin et al        
##  2 Jucker et al       
##  3 Calcagno et al     
##  4 Segre et al        
##  5 Kaufman et al      
##  6 Nasto et al        
##  7 Tschirren et al    
##  8 Barnechi et al     
##  9 Pinto-Sanchez et al
## 10 Clough et al       
## # ... with 1,270 more rows
```
]
---
class: center
# Select columns with rows of papers with < 3 authors
.left[

```r
citations %>%
  filter(!str_detect(Authors,'et al')) %>% ##！ for saying "not".
  select(Authors)
```

```
## # A tibble: 319 x 1
##    Authors           
##    <chr>             
##  1 Neutle and Thorne 
##  2 Kellner and Asner 
##  3 Griffin and Willi 
##  4 Gremer and Venable
##  5 Cavieres          
##  6 Haegman and Loreau
##  7 Kearney           
##  8 Locey and White   
##  9 Quintero and Weins
## 10 Lesser and Jackson
## # ... with 309 more rows
```
…
---
class: center

# Rows of papers with less than 3 authors in journal with IF < 5
.left[

```r
citations %>%
  filter(!str_detect(Authors,'et al'), impactfactor < 5)
```

```
## # A tibble: 77 x 12
##    journal  impactfactor pubyear Volume Issue  Authors colldate pubdate nbtweets
##    <fct>           <dbl>   <dbl>  <dbl> <chr>  <chr>   <chr>    <chr>      <dbl>
##  1 Molecul~         4.9     2014     14 6      Gautier 2/27/20~ 5/14/2~        2
##  2 Molecul~         4.9     2014     14 5      Gambel~ 2/27/20~ 3/7/20~        7
##  3 Molecul~         4.9     2014     14 4      Kekkon~ 2/27/20~ 3/10/2~        4
##  4 Molecul~         4.9     2014     14 3      Bhatta~ 2/27/20~ 12/8/2~        0
##  5 Molecul~         4.9     2014     14 1      Christ~ 2/28/20~ 10/25/~        0
##  6 Molecul~         4.9     2013     13 4      Villar~ 2/28/20~ 5/2/20~        0
##  7 Molecul~         4.9     2013     13 4      Wang    2/28/20~ 4/25/2~        0
##  8 Molecul~         4.9     2012     12 1      Joly    2/28/20~ 9/7/20~        3
##  9 Animal ~         3.21    2014     17 6      Plavsic 2/9/2016 4/17/2~        9
## 10 Animal ~         3.21    2014     17 Suppl~ Knox a~ 2/11/20~ 11/13/~        1
## # ... with 67 more rows, and 3 more variables: Number of users <dbl>,
## #   Twitter reach <dbl>, woscitations <dbl>
```
]
---
class: center

# Convert words to lowercase
.left[

```r
citations %>%
* mutate(authors_lowercase = str_to_lower(Authors)) %>%
  select(authors_lowercase)
```

```
## # A tibble: 1,599 x 1
##    authors_lowercase  
##    <chr>              
##  1 morin et al        
##  2 jucker et al       
##  3 calcagno et al     
##  4 segre et al        
##  5 kaufman et al      
##  6 nasto et al        
##  7 tschirren et al    
##  8 barnechi et al     
##  9 pinto-sanchez et al
## 10 clough et al       
## # ... with 1,589 more rows
```
…
```r
citations %>%
  count(journal, pubyear)
```

```
## # A tibble: 59 x 3
##    journal                     pubyear     n
##    <fct>                         <dbl> <int>
##  1 Animal Conservation            2012    18
##  2 Animal Conservation            2013    18
##  3 Animal Conservation            2014    66
##  4 Conservation Letters           2012    17
##  5 Conservation Letters           2013    18
##  6 Conservation Letters           2014    18
##  7 Diversity and Distributions    2012    36
##  8 Diversity and Distributions    2013    33
##  9 Diversity and Distributions    2014    36
## 10 Ecological Applications        2012    24
## # ... with 49 more rows
```
…
