Data cleaning
…
    Exercise 9:

    Exeercise 10:

Data cleaning

Gbadamassi G.O. Dossa

2022-06-27

Question 1a

penguins # display data

## # A tibble: 344 x 8
##    species island    bill_length_mm bill_depth_mm flipper_length_mm body_mass_g
##    <fct>   <fct>              <dbl>         <dbl>             <int>       <int>
##  1 Adelie  Torgersen           39.1          18.7               181        3750
##  2 Adelie  Torgersen           39.5          17.4               186        3800
##  3 Adelie  Torgersen           40.3          18                 195        3250
##  4 Adelie  Torgersen           NA            NA                  NA          NA
##  5 Adelie  Torgersen           36.7          19.3               193        3450
##  6 Adelie  Torgersen           39.3          20.6               190        3650
##  7 Adelie  Torgersen           38.9          17.8               181        3625
##  8 Adelie  Torgersen           39.2          19.6               195        4675
##  9 Adelie  Torgersen           34.1          18.1               193        3475
## 10 Adelie  Torgersen           42            20.2               190        4250
## # ... with 334 more rows, and 2 more variables: sex <fct>, year <int>
…
Question 1b

dat <- penguins %>%
# filter out missing sex
  filter(!is.na(sex)) %>% 
# select variables
  select(species, island, bill_length_mm, body_mass_g) 

Question 2a

dat # nb of penguins

## # A tibble: 333 x 4
##    species island    bill_length_mm body_mass_g
##    <fct>   <fct>              <dbl>       <int>
##  1 Adelie  Torgersen           39.1        3750
##  2 Adelie  Torgersen           39.5        3800
##  3 Adelie  Torgersen           40.3        3250
##  4 Adelie  Torgersen           36.7        3450
##  5 Adelie  Torgersen           39.3        3650
##  6 Adelie  Torgersen           38.9        3625
##  7 Adelie  Torgersen           39.2        4675
##  8 Adelie  Torgersen           41.1        3200
##  9 Adelie  Torgersen           38.6        3800
## 10 Adelie  Torgersen           34.6        4400
## # ... with 323 more rows
…
Question 3a: mean body mass

# option 1
dat %>%
  mutate(mean_bm = mean(body_mass_g))

## # A tibble: 333 x 5
##    species island    bill_length_mm body_mass_g mean_bm
##    <fct>   <fct>              <dbl>       <int>   <dbl>
##  1 Adelie  Torgersen           39.1        3750   4207.
##  2 Adelie  Torgersen           39.5        3800   4207.
##  3 Adelie  Torgersen           40.3        3250   4207.
##  4 Adelie  Torgersen           36.7        3450   4207.
##  5 Adelie  Torgersen           39.3        3650   4207.
##  6 Adelie  Torgersen           38.9        3625   4207.
##  7 Adelie  Torgersen           39.2        4675   4207.
##  8 Adelie  Torgersen           41.1        3200   4207.
##  9 Adelie  Torgersen           38.6        3800   4207.
## 10 Adelie  Torgersen           34.6        4400   4207.
## # ... with 323 more rows
…
## # A tibble: 1 x 1
##   mean_bm
##     <dbl>
## 1   4207.

Question 3b: mean body mass per species

# option 1
dat %>%
  group_by(species) %>% 
  mutate(mean_bm = mean(body_mass_g))

## # A tibble: 333 x 5
## # Groups:   species [3]
##    species island    bill_length_mm body_mass_g mean_bm
##    <fct>   <fct>              <dbl>       <int>   <dbl>
##  1 Adelie  Torgersen           39.1        3750   3706.
##  2 Adelie  Torgersen           39.5        3800   3706.
##  3 Adelie  Torgersen           40.3        3250   3706.
##  4 Adelie  Torgersen           36.7        3450   3706.
##  5 Adelie  Torgersen           39.3        3650   3706.
##  6 Adelie  Torgersen           38.9        3625   3706.
##  7 Adelie  Torgersen           39.2        4675   3706.
##  8 Adelie  Torgersen           41.1        3200   3706.
##  9 Adelie  Torgersen           38.6        3800   3706.
## 10 Adelie  Torgersen           34.6        4400   3706.
## # ... with 323 more rows
…
